<?xml version="1.0" encoding="UTF-8" standalone="no"?>
<!-- Created with Inkscape (http://www.inkscape.org/) -->

<svg
   xmlns:dc="http://purl.org/dc/elements/1.1/"
   xmlns:cc="http://creativecommons.org/ns#"
   xmlns:rdf="http://www.w3.org/1999/02/22-rdf-syntax-ns#"
   xmlns:svg="http://www.w3.org/2000/svg"
   xmlns="http://www.w3.org/2000/svg"
   version="1.1"
   width="64"
   height="64"
   id="svg2">
  <defs
     id="defs4" />
  <metadata
     id="metadata7">
    <rdf:RDF>
      <cc:Work
         rdf:about="">
        <dc:format>image/svg+xml</dc:format>
        <dc:type
           rdf:resource="http://purl.org/dc/dcmitype/StillImage" />
        <dc:title></dc:title>
      </cc:Work>
    </rdf:RDF>
  </metadata>
  <g
     transform="translate(0,-988.36218)"
     id="layer1">
    <rect
       width="7.2469831"
       height="51.922501"
       x="-702.13989"
       y="727.83026"
       transform="matrix(0.70710678,-0.70710678,0.70710678,0.70710678,0,0)"
       id="rect3767"
       style="fill:#ff6600;fill-opacity:1;fill-rule:nonzero;stroke:#000000;stroke-width:3.99999976;stroke-linecap:round;stroke-linejoin:miter;stroke-miterlimit:4;stroke-opacity:1;stroke-dasharray:none;stroke-dashoffset:0" />
    <rect
       width="28.135344"
       height="11.700093"
       x="-713.30878"
       y="716.57617"
       transform="matrix(0.70710678,-0.70710678,0.70710678,0.70710678,0,0)"
       id="rect3769"
       style="fill:#000000;fill-opacity:1;fill-rule:nonzero;stroke:#000000;stroke-width:3.99999976;stroke-linecap:round;stroke-linejoin:miter;stroke-miterlimit:4;stroke-opacity:1;stroke-dasharray:none;stroke-dashoffset:0" />
    <path
       d="M 27.889324,1036.0737 C 27.889324,1036.0737 28.591864,1041.9994 23.351667,1047.7447 19.753019,1050.9645 14.244511,1049.2441 14.244511,1049.2441 L 20.794724,1042.6939 20.794749,1037.2959 16.722572,1033.2237 10.72477,1033.2237 4.2850781,1039.6634 C 4.2850781,1039.6634 2.9592731,1033.6656 6.3053731,1030.3195 11.54556,1024.7005 17.101359,1026.3421 17.101359,1026.3421 L 27.627287,1015.9072 38.153145,1005.4724 C 38.153145,1005.4724 36.511678,999.91657 42.130643,994.67641 45.476778,991.33028 51.474558,992.6561 51.474558,992.6561 L 45.03483,999.09583 45.03486,1005.0936 49.107037,1009.1658 54.505016,1009.1658 61.055222,1002.6156 C 61.055222,1002.6156 62.775639,1008.1241 59.555776,1011.7227 53.81056,1016.9629 47.884905,1016.2603 47.884905,1016.2603 L 37.887115,1026.167 z"
       id="path3775-1"
       style="fill:#808080;stroke:#000000;stroke-width:4;stroke-linecap:butt;stroke-linejoin:miter;stroke-miterlimit:4;stroke-opacity:1;stroke-dasharray:none" />
  </g>
</svg>
